DS4HS - Saturday Data Workshop
…
group_by(yellow)|> 
summarize(count = n())

Now you Try

Show only neighborhoods with low tree equity scores (TES < 50)

Hint: filter()

library(tidyverse)
ca_tes|>
  filter(tes < 50)

# A tibble: 578 × 39
   GEOID       place state state_abbr county ua_name ua_pop congressio
   <chr>       <chr> <chr> <chr>      <chr>  <chr>    <dbl> <chr>     
 1 0600145010… Dubl… Cali… CA         Alame… Liverm… 240381 CA Congre…
 2 0600145075… Dubl… Cali… CA         Alame… Liverm… 240381 CA Congre…
 3 0600145075… Dubl… Cali… CA         Alame… Liverm… 240381 CA Congre…
 4 0600145120… Live… Cali… CA         Alame… Liverm… 240381 CA Congre…
 5 0600700370… Orov… Cali… CA         Butte… Orovil…  40190 CA Congre…
 6 0601330400… Byron Cali… CA         Contr… Discov…  15939 CA Congre…
 7 0601330400… Disc… Cali… CA         Contr… Discov…  15939 CA Congre…
 8 0601330720… Anti… Cali… CA         Contr… Antioc… 327378 CA Congre…
 9 0601331000… Pitt… Cali… CA         Contr… Antioc… 327378 CA Congre…
10 0601500010… Cres… Cali… CA         Del N… Cresce…  15620 CA Congre…
# ℹ 568 more rows
# ℹ 31 more variables: cbg_pop <dbl>, acs_pop <dbl>, land_area <dbl>,
#   biome <chr>, cnpysource <chr>, tc_goal <dbl>, treecanopy <dbl>,
#   tc_gap <dbl>, priority_i <dbl>, pctpoc <dbl>, pctpocnorm <dbl>,
#   pctpov <dbl>, pctpovnorm <dbl>, unemplrate <dbl>,
#   unemplnorm <dbl>, dep_ratio <dbl>, dep_perc <dbl>,
#   depratnorm <dbl>, linguistic <dbl>, lingnorm <dbl>, …

Focus on tree coverage, TES, and unemployment (keep these columns)

Hint: select()

ca_tes |>
  select(treecanopy, tes, unemplnorm)

# A tibble: 24,253 × 3
   treecanopy   tes unemplnorm
        <dbl> <dbl>      <dbl>
 1      0.598   100     0.0450
 2      0.458   100     0.100 
 3      0.282    98     0.0756
 4      0.309   100     0.188 
 5      0.22     94     0.0502
 6      0.208    96     0.0867
 7      0.191    90     0.0565
 8      0.195    96     0.0676
 9      0.323   100     0     
10      0.258    96     0.0226
# ℹ 24,243 more rows

What percent of the tree coverage goal has been met?

Hint: mutate()

ca_tes |>
  mutate(pct_coverage_met = treecanopy / tc_goal * 100)

# A tibble: 24,253 × 40
   GEOID       place state state_abbr county ua_name ua_pop congressio
   <chr>       <chr> <chr> <chr>      <chr>  <chr>    <dbl> <chr>     
 1 0600140010… Oakl… Cali… CA         Alame… San Fr… 3.52e6 CA Congre…
 2 0600140010… Oakl… Cali… CA         Alame… San Fr… 3.52e6 CA Congre…
 3 0600140020… Oakl… Cali… CA         Alame… San Fr… 3.52e6 CA Congre…
 4 0600140020… Oakl… Cali… CA         Alame… San Fr… 3.52e6 CA Congre…
 5 0600140030… Oakl… Cali… CA         Alame… San Fr… 3.52e6 CA Congre…
 6 0600140030… Oakl… Cali… CA         Alame… San Fr… 3.52e6 CA Congre…
 7 0600140030… Oakl… Cali… CA         Alame… San Fr… 3.52e6 CA Congre…
 8 0600140030… Oakl… Cali… CA         Alame… San Fr… 3.52e6 CA Congre…
 9 0600140040… Oakl… Cali… CA         Alame… San Fr… 3.52e6 CA Congre…
10 0600140040… Oakl… Cali… CA         Alame… San Fr… 3.52e6 CA Congre…
# ℹ 24,243 more rows
# ℹ 32 more variables: cbg_pop <dbl>, acs_pop <dbl>, land_area <dbl>,
#   biome <chr>, cnpysource <chr>, tc_goal <dbl>, treecanopy <dbl>,
#   tc_gap <dbl>, priority_i <dbl>, pctpoc <dbl>, pctpocnorm <dbl>,
#   pctpov <dbl>, pctpovnorm <dbl>, unemplrate <dbl>,
#   unemplnorm <dbl>, dep_ratio <dbl>, dep_perc <dbl>,
#   depratnorm <dbl>, linguistic <dbl>, lingnorm <dbl>, …

Compute the average TES score by place

Hint: groupby() and summarise()

ca_tes |>
  group_by(place) |>
  summarize(avg_tes = mean(tes, na.rm = TRUE))

# A tibble: 874 × 2
   place        avg_tes
   <chr>          <dbl>
 1 Adelanto        54.6
 2 Agoura Hills    81.9
 3 Airport         43  
 4 Alameda         87.5
 5 Alamo           99.2
 6 Albany          90.2
 7 Alhambra        73.0
 8 Aliso Viejo     85.7
 9 Alondra Park    65.7
10 Alpine          74.1
# ℹ 864 more rows
…
How does tree equity relate to both poverty and health disparity?

ca_tes |>
  filter(!is.na(pctpov), !is.na(health_nor)) |>
  mutate(combined_index = pctpov * health_nor) |>
  select(place, combined_index, tes) |>
  arrange(desc(combined_index))

# A tibble: 24,253 × 3
   place      combined_index   tes
   <chr>               <dbl> <dbl>
 1 Napa                1        69
 2 Chowchilla          0.997    61
 3 Hanford             0.920    26
 4 Wasco               0.908    37
 5 Shafter             0.903    58
 6 Arvin               0.899    24
 7 Delano              0.899    30
 8 Shafter             0.876    44
 9 Brawley             0.875    50
10 Rosamond            0.875    18
# ℹ 24,243 more rows
…
